…
``` r
g1 <- gapminder %>% 
   filter(year == 2007) %>% 
   group_by(continent) %>% 
   arrange(desc(pop)) %>% 
   slice(1:5) 

g1
```

    ## # A tibble: 22 × 6
    ## # Groups:   continent [5]
    ##    country          continent  year lifeExp       pop gdpPercap
    ##    <fct>            <fct>     <int>   <dbl>     <int>     <dbl>
    ##  1 Nigeria          Africa     2007    46.9 135031164     2014.
    ##  2 Egypt            Africa     2007    71.3  80264543     5581.
    ##  3 Ethiopia         Africa     2007    52.9  76511887      691.
    ##  4 Congo, Dem. Rep. Africa     2007    46.5  64606759      278.
    ##  5 South Africa     Africa     2007    49.3  43997828     9270.
    ##  6 United States    Americas   2007    78.2 301139947    42952.
    ##  7 Brazil           Americas   2007    72.4 190010647     9066.
    ##  8 Mexico           Americas   2007    76.2 108700891    11978.
    ##  9 Colombia         Americas   2007    72.9  44227550     7007.
    ## 10 Argentina        Americas   2007    75.3  40301927    12779.
    ## # ℹ 12 more rows
…
    ## Loading required package: quantmod

    ## Loading required package: TTR

    ## Registered S3 method overwritten by 'quantmod':
    ##   method            from
    ##   as.zoo.data.frame zoo

``` r
stocks <- tq_get(c("AAPL", "NFLX"), get = "stock.prices")

stocks
```

    ## # A tibble: 5,102 × 8
    ##    symbol date        open  high   low close    volume adjusted
    ##    <chr>  <date>     <dbl> <dbl> <dbl> <dbl>     <dbl>    <dbl>
    ##  1 AAPL   2014-01-02  19.8  19.9  19.7  19.8 234684800     17.3
    ##  2 AAPL   2014-01-03  19.7  19.8  19.3  19.3 392467600     16.9
    ##  3 AAPL   2014-01-06  19.2  19.5  19.1  19.4 412610800     17.0
    ##  4 AAPL   2014-01-07  19.4  19.5  19.2  19.3 317209200     16.9
    ##  5 AAPL   2014-01-08  19.2  19.5  19.2  19.4 258529600     17.0
    ##  6 AAPL   2014-01-09  19.5  19.5  19.1  19.2 279148800     16.8
    ##  7 AAPL   2014-01-10  19.3  19.3  19.0  19.0 304976000     16.7
    ##  8 AAPL   2014-01-13  18.9  19.4  18.9  19.1 378492800     16.8
    ##  9 AAPL   2014-01-14  19.2  19.5  19.2  19.5 332561600     17.1
    ## 10 AAPL   2014-01-15  19.8  20.0  19.7  19.9 391638800     17.4
    ## # ℹ 5,092 more rows
…
``` r
wide_stocks <- stocks %>% 
  select(symbol, date, close) %>% 
  pivot_wider(values_from = close, names_from = symbol)

wide_stocks
```

    ## # A tibble: 2,551 × 3
    ##    date        AAPL  NFLX
    ##    <date>     <dbl> <dbl>
    ##  1 2014-01-02  19.8  51.8
    ##  2 2014-01-03  19.3  51.9
    ##  3 2014-01-06  19.4  51.4
    ##  4 2014-01-07  19.3  48.5
    ##  5 2014-01-08  19.4  48.7
    ##  6 2014-01-09  19.2  48.2
    ##  7 2014-01-10  19.0  47.4
    ##  8 2014-01-13  19.1  48.1
    ##  9 2014-01-14  19.5  48.3
    ## 10 2014-01-15  19.9  47.2
    ## # ℹ 2,541 more rows
…
``` r
gapminder2 <- gapminder %>% 
  filter(continent == "Americas" &
           year %in% c(1952, 2007)) %>%
  select(country, year, lifeExp) %>% 
  pivot_wider(names_from = year, 
              values_from = lifeExp, names_prefix = "year_")

gapminder2
```

    ## # A tibble: 25 × 3
    ##    country            year_1952 year_2007
    ##    <fct>                  <dbl>     <dbl>
    ##  1 Argentina               62.5      75.3
    ##  2 Bolivia                 40.4      65.6
    ##  3 Brazil                  50.9      72.4
    ##  4 Canada                  68.8      80.7
    ##  5 Chile                   54.7      78.6
    ##  6 Colombia                50.6      72.9
    ##  7 Costa Rica              57.2      78.8
    ##  8 Cuba                    59.4      78.3
    ##  9 Dominican Republic      45.9      72.2
    ## 10 Ecuador                 48.4      75.0
    ## # ℹ 15 more rows
…
