…
``` r
library(tidygeocoder)

hometowns <- tibble("hometown" = c("India","New Orleans, LA", "Chicago", "Greenville, SC","Los Angeles",
               "Central Pennsylvania", "New Delhi, India", "Syracuse, NY", "Shenzhen, China",
               "Bangalore, India", "China", "Grand Rapids, MI", "Nicaragua", "San Antonio, TX",
               "China", "Abu Dhabi, United Arab Emirates", "China", "Hinsdale, IL",
               "Waukesha, WI", "Chongqing, China", "Bucks County, PA", "Chicago",
               "Seattle", "Nashville", "Milford, Michigan", "Seattle", "Shanghai, China",
               "Miami", "Sao Paulo, Brazil", "Palo Alto", "Livermore, CA"))

hometowns
```

    ## # A tibble: 31 × 1
    ##    hometown            
    ##    <chr>               
    ##  1 India               
    ##  2 New Orleans, LA     
    ##  3 Chicago             
    ##  4 Greenville, SC      
    ##  5 Los Angeles         
    ##  6 Central Pennsylvania
    ##  7 New Delhi, India    
    ##  8 Syracuse, NY        
    ##  9 Shenzhen, China     
    ## 10 Bangalore, India    
    ## # ℹ 21 more rows
…
``` r
lat_longs <- hometowns %>%
  geocode(hometown, method = 'osm', lat = latitude , long = longitude)
```

    ## Passing 27 addresses to the Nominatim single address geocoder

    ## Query completed in: 30.9 seconds

``` r
lat_longs
```

    ## # A tibble: 31 × 3
    ##    hometown             latitude longitude
    ##    <chr>                   <dbl>     <dbl>
    ##  1 India                    22.4      78.7
    ##  2 New Orleans, LA          30.0     -90.1
    ##  3 Chicago                  41.9     -87.6
    ##  4 Greenville, SC           34.9     -82.4
    ##  5 Los Angeles              34.1    -118. 
    ##  6 Central Pennsylvania     40.2     -79.6
    ##  7 New Delhi, India         28.6      77.2
    ##  8 Syracuse, NY             43.0     -76.1
    ##  9 Shenzhen, China          22.5     114. 
    ## 10 Bangalore, India         13.0      77.6
    ## # ℹ 21 more rows
…
